Text Processing R-club Presentation
…
Tidying Jane Austens text

We are going to import Jane Austens 6 completed, published novels from the janeaustenr package (Silge 2016), and transform them into a tidy format. The janeaustenr package provides these texts in a one-row-per-line format, where a line in this context is analogous to a literal printed line in a physical book. Lets start with that, and also use mutate() to annotate a linenumber quantity to keep track of lines in the original format and a chapter (using a regex) to find where all the chapters are.

original_books <- austen_books() %>%
  group_by(book) %>%
  mutate(linenumber = row_number(),
         chapter = cumsum(str_detect(text, regex("^chapter [\\divxlc]",
                                                 ignore_case = TRUE)))) %>%
  ungroup()

original_books

## # A tibble: 73,422 x 4
##    text                  book                linenumber chapter
##    <chr>                 <fct>                    <int>   <int>
##  1 SENSE AND SENSIBILITY Sense & Sensibility          1       0
##  2 ""                    Sense & Sensibility          2       0
##  3 by Jane Austen        Sense & Sensibility          3       0
##  4 ""                    Sense & Sensibility          4       0
##  5 (1811)                Sense & Sensibility          5       0
##  6 ""                    Sense & Sensibility          6       0
##  7 ""                    Sense & Sensibility          7       0
##  8 ""                    Sense & Sensibility          8       0
##  9 ""                    Sense & Sensibility          9       0
## 10 CHAPTER 1             Sense & Sensibility         10       1
## # ... with 73,412 more rows

Now, we need to restructure it in the one-token-per-row format using the unnest_tokens() function.

tidy_books <- original_books %>%
  unnest_tokens(word, text)

tidy_books

## # A tibble: 725,055 x 4
##    book                linenumber chapter word       
##    <fct>                    <int>   <int> <chr>      
##  1 Sense & Sensibility          1       0 sense      
##  2 Sense & Sensibility          1       0 and        
##  3 Sense & Sensibility          1       0 sensibility
##  4 Sense & Sensibility          3       0 by         
##  5 Sense & Sensibility          3       0 jane       
##  6 Sense & Sensibility          3       0 austen     
##  7 Sense & Sensibility          5       0 1811       
##  8 Sense & Sensibility         10       1 chapter    
##  9 Sense & Sensibility         10       1 1          
## 10 Sense & Sensibility         13       1 the        
## # ... with 725,045 more rows

Removing stop words

Often in text analysis, we will want to remove stop words; stop words are words that are not useful for an analysis, typically extremely common words such as the, of, to, and so forth in English. We can remove stop words (kept in the tidytext dataset stop_words) with anti_join(). Anti_join return all rows from x where there are not matching values in y, keeping just columns from x.

You can also customize stop words (example further down)

#If stop words is not applied 
tidy_books %>%
  count(word, sort = TRUE) 

## # A tibble: 14,520 x 2
##    word      n
##    <chr> <int>
##  1 the   26351
##  2 to    24044
##  3 and   22515
##  4 of    21178
##  5 a     13408
##  6 her   13055
##  7 i     12006
##  8 in    11217
##  9 was   11204
## 10 it    10234
## # ... with 14,510 more rows
#see that the most common words are: "the", "to", "and", etc...

#apply the stop word 
data(stop_words)

tidy_books <- tidy_books %>%
  anti_join(stop_words)

## Joining, by = "word"

#Now that stop words are removed, the most common words are more informative 
tidy_books %>%
  count(word, sort = TRUE) 

## # A tibble: 13,914 x 2
##    word       n
##    <chr>  <int>
##  1 miss    1855
##  2 time    1337
##  3 fanny    862
##  4 dear     822
##  5 lady     817
##  6 sir      806
##  7 day      797
##  8 emma     787
##  9 sister   727
## 10 house    699
## # ... with 13,904 more rows

Counting and plotting

As seen above, we can use dplyrs count() to find the most common words in all the books as a whole and plot it in ggplot2.

#count

tidy_books %>%
  count(word, sort = TRUE) 

## # A tibble: 13,914 x 2
##    word       n
##    <chr>  <int>
##  1 miss    1855
##  2 time    1337
##  3 fanny    862
##  4 dear     822
##  5 lady     817
##  6 sir      806
##  7 day      797
##  8 emma     787
##  9 sister   727
## 10 house    699
## # ... with 13,904 more rows
…
We already imported Jane Austens books in the previous section. Lets perform sentiment analysis on the most common joy and anger words in the book Emma using inner_join. Inner-join return all rows from x where there are matching values in y, and all columns from x and y. If there are multiple matches between x and y, all combination of the matches are returned.

#joy (words associated with joy based on the nrc lexicon)
nrc_joy <- get_sentiments("nrc") %>% 
  filter(sentiment == "joy")

#most repeated joy words in the book "Emma"
tidy_books %>%
  filter(book == "Emma") %>%
  inner_join(nrc_joy) %>%
  count(word, sort = TRUE)

## Joining, by = "word"

## # A tibble: 298 x 2
##    word          n
##    <chr>     <int>
##  1 friend      166
##  2 hope        143
##  3 happy       125
##  4 love        117
##  5 deal         92
##  6 found        92
##  7 happiness    76
##  8 pretty       68
##  9 true         66
## 10 comfort      65
## # ... with 288 more rows

#anger
nrc_anger <- get_sentiments("nrc") %>% 
  filter(sentiment == "anger")

tidy_books %>%
  filter(book == "Emma") %>%
  inner_join(nrc_anger) %>%
  count(word, sort = TRUE)

## Joining, by = "word"

## # A tibble: 313 x 2
##    word           n
##    <chr>      <int>
##  1 ill           72
##  2 bad           60
##  3 feeling       56
##  4 bear          52
##  5 words         49
##  6 obliging      34
##  7 evil          33
##  8 difficulty    30
##  9 spite         24
## 10 loss          23
## # ... with 303 more rows

Finding the most common positive and negative words

Combining count with word and sentiment, we can find out how much each word contributed to each sentiment.

bing_word_counts <- tidy_books %>%
  inner_join(get_sentiments("bing")) %>%
  count(word, sentiment, sort = TRUE) %>%
  ungroup()

## Joining, by = "word"

bing_word_counts

## # A tibble: 2,555 x 3
##    word      sentiment     n
##    <chr>     <chr>     <int>
##  1 miss      negative   1855
##  2 happy     positive    534
##  3 love      positive    495
##  4 pleasure  positive    462
##  5 poor      negative    424
##  6 happiness positive    369
##  7 comfort   positive    292
##  8 doubt     negative    281
##  9 affection positive    272
## 10 perfectly positive    271
## # ... with 2,545 more rows
…
Custom Stop-word

We can see an anomaly related to the word miss it is coded as negative but it is used as a title for young, unmarried women in Jane Austens works. We can add miss to a custom stop-words list using bind_rows():

#check out stop_words
stop_words

## # A tibble: 1,149 x 2
##    word        lexicon
##    <chr>       <chr>  
##  1 a           SMART  
##  2 a's         SMART  
##  3 able        SMART  
##  4 about       SMART  
##  5 above       SMART  
##  6 according   SMART  
##  7 accordingly SMART  
##  8 across      SMART  
##  9 actually    SMART  
## 10 after       SMART  
## # ... with 1,139 more rows

#now lets add "miss" to the strop_words
custom_stop_words <- bind_rows(data_frame(word = c("miss"), 
                                          lexicon = c("custom")), 
                               stop_words)

custom_stop_words

## # A tibble: 1,150 x 2
##    word        lexicon
##    <chr>       <chr>  
##  1 miss        custom 
##  2 a           SMART  
##  3 a's         SMART  
##  4 able        SMART  
##  5 about       SMART  
##  6 above       SMART  
##  7 according   SMART  
##  8 accordingly SMART  
##  9 across      SMART  
## 10 actually    SMART  
## # ... with 1,140 more rows
…
#Count the most common words and notice that prior to removing stop-words, the most common words are things like "the", "a", etc... 
df_unnest %>%
  count(word, sort = TRUE)

## # A tibble: 4,924 x 2
##    word      n
##    <chr> <int>
##  1 the    2519
##  2 of     1726
##  3 and    1375
##  4 to     1208
##  5 in      738
##  6 our     618
##  7 a       578
##  8 we      494
##  9 that    462
## 10 be      429
## # ... with 4,914 more rows

#Remove the stop-words in our speech data, notice the decrease in number of rows.
df_nonstop <- df_unnest %>% 
  anti_join(stop_words)

## Joining, by = "word"

#After removing stop words, now use count to find most common words in the inaugural data
df_nonstop %>%
  count(word, sort = TRUE) 

## # A tibble: 4,442 x 2
##    word           n
##    <chr>      <int>
##  1 government   154
##  2 people       151
##  3 0097         126
##  4 world         85
##  5 country       76
##  6 public        73
##  7 nation        69
##  8 citizens      67
##  9 time          60
## 10 peace         58
## # ... with 4,432 more rows

#What's up with the string 0097? It may have something to do with the way the speeches were coded (U+0097 in Unicode Character refers to 'END OF GUARDED AREA'). So let's remove "0097" from our analysis by creating a custom stop-word for "0097" and apply this to the data.
custom_stop_words <- bind_rows(data_frame(word = c("0097","0092"), 
                                          lexicon = c("custom")), 
                               stop_words)

custom_stop_words #we can see that 0097 was added to the list of stop words

## # A tibble: 1,151 x 2
##    word        lexicon
##    <chr>       <chr>  
##  1 0097        custom 
##  2 0092        custom 
##  3 a           SMART  
##  4 a's         SMART  
##  5 able        SMART  
##  6 about       SMART  
##  7 above       SMART  
##  8 according   SMART  
##  9 accordingly SMART  
## 10 across      SMART  
## # ... with 1,141 more rows

df_tidy <- df_unnest %>% 
  anti_join(custom_stop_words)

## Joining, by = "word"

#now lets see the top words again
df_tidy %>%
  count(word, sort = TRUE)

## # A tibble: 4,440 x 2
##    word           n
##    <chr>      <int>
##  1 government   154
##  2 people       151
##  3 world         85
##  4 country       76
##  5 public        73
##  6 nation        69
##  7 citizens      67
##  8 time          60
##  9 peace         58
## 10 free          55
## # ... with 4,430 more rows
…
